^C:\PAINTWAR\PAINTWAR\SERVER\PAINTWARSERVER\PAINTWARSERVER\GAMETIMER.CPP
/c /Zi /nologo /W3 /WX- /diagnostics:classic /sdl- /O2 /Oi /GL /D _MBCS /Gm- /EHsc /MD /GS /Gy /fp:precise /permissive- /Zc:wchar_t /Zc:forScope /Zc:inline /Fo"X64\RELEASE\\" /Fd"X64\RELEASE\VC141.PDB" /Gd /TP /FC C:\PAINTWAR\PAINTWAR\SERVER\PAINTWARSERVER\PAINTWARSERVER\GAMETIMER.CPP
^C:\PAINTWAR\PAINTWAR\SERVER\PAINTWARSERVER\PAINTWARSERVER\IOCPSERVER.CPP
/c /Zi /nologo /W3 /WX- /diagnostics:classic /sdl- /O2 /Oi /GL /D _MBCS /Gm- /EHsc /MD /GS /Gy /fp:precise /permissive- /Zc:wchar_t /Zc:forScope /Zc:inline /Fo"X64\RELEASE\\" /Fd"X64\RELEASE\VC141.PDB" /Gd /TP /FC C:\PAINTWAR\PAINTWAR\SERVER\PAINTWARSERVER\PAINTWARSERVER\IOCPSERVER.CPP
^C:\PAINTWAR\PAINTWAR\SERVER\PAINTWARSERVER\PAINTWARSERVER\MAIN.CPP
/c /Zi /nologo /W3 /WX- /diagnostics:classic /sdl- /O2 /Oi /GL /D _MBCS /Gm- /EHsc /MD /GS /Gy /fp:precise /permissive- /Zc:wchar_t /Zc:forScope /Zc:inline /Fo"X64\RELEASE\\" /Fd"X64\RELEASE\VC141.PDB" /Gd /TP /FC C:\PAINTWAR\PAINTWAR\SERVER\PAINTWARSERVER\PAINTWARSERVER\MAIN.CPP
